{
  "_meta": {
    "sources": [
      "loopback/src/models",
      "./src/models"
    ],
    "mixins": [
      "loopback/src/mixins",
      "./src/mixins"
    ]
  },
  "User": {
    "dataSource": "postgresql"
  },
  "AccessToken": {
    "dataSource": "postgresql",
    "public": false,
    "relations": {
      "Account": {
        "type": "belongsTo",
        "model": "Account",
        "foreignKey": "userId"
      }
    }
  },
  "ACL": {
    "dataSource": "postgresql",
    "public": false
  },
  "RoleMapping": {
    "dataSource": "postgresql",
    "public": false,
    "options": {
      "strictObjectIDCoercion": true
    }
  },
  "Role": {
    "dataSource": "postgresql",
    "public": false
  },
  "Account": {
    "dataSource": "postgresql"
  },
  "Proposal": {
    "dataSource": "postgresql",
    "public": true
  }
}
